…
# now there are 2 value columns (for original var, and y2y_diff version); 
# we can make it wide as is, but then have to fix some columns names ("value_")
dv_semi_long
```

    ## # A tibble: 50,748 × 5
    ## # Groups:   gwcode, variable [1,044]
    ##    gwcode  year variable          value diff_y2y
    ##     <dbl> <dbl> <chr>             <dbl>    <dbl>
    ##  1      2  1968 v2x_freexp_altinf 0.876  0      
    ##  2      2  1969 v2x_freexp_altinf 0.885  0.00900
    ##  3      2  1970 v2x_freexp_altinf 0.902  0.0170 
    ##  4      2  1971 v2x_freexp_altinf 0.878 -0.0240 
    ##  5      2  1972 v2x_freexp_altinf 0.902  0.0240 
    ##  6      2  1973 v2x_freexp_altinf 0.928  0.0260 
    ##  7      2  1974 v2x_freexp_altinf 0.936  0.00800
    ##  8      2  1975 v2x_freexp_altinf 0.937  0.00100
    ##  9      2  1976 v2x_freexp_altinf 0.951  0.0140 
    ## 10      2  1977 v2x_freexp_altinf 0.944 -0.00700
    ## # … with 50,738 more rows

``` r
# make wide again
dv_with_diffs <- dv_semi_long %>%
  pivot_wider(names_from = variable, values_from = c(value, diff_y2y)) %>%
  arrange(gwcode, year) %>%
  # take out "value_" prefix
  setNames(names(.) %>% str_replace("value_", "")) %>%
  # move "diff_y2y_" prefix to "_diff_y2y" suffix
  setNames(names(.) %>% str_replace("diff_y2y_([a-z0-9\\_]+)", "\\1_diff_y2y"))
  
dv_with_diffs
```

    ## # A tibble: 8,458 × 14
    ## # Groups:   gwcode [174]
    ##    gwcode  year v2x_freexp_altinf v2x_horacc_osp v2x_pubcorr v2x_veracc_osp
    ##     <dbl> <dbl>             <dbl>          <dbl>       <dbl>          <dbl>
    ##  1      2  1968             0.876          0.907       0.952          0.85 
    ##  2      2  1969             0.885          0.913       0.952          0.849
    ##  3      2  1970             0.902          0.918       0.96           0.865
    ##  4      2  1971             0.878          0.918       0.948          0.866
    ##  5      2  1972             0.902          0.919       0.948          0.862
    ##  6      2  1973             0.928          0.959       0.948          0.863
    ##  7      2  1974             0.936          0.96        0.948          0.872
    ##  8      2  1975             0.937          0.96        0.948          0.888
    ##  9      2  1976             0.951          0.96        0.948          0.903
    ## 10      2  1977             0.944          0.954       0.948          0.906
    ## # … with 8,448 more rows, and 8 more variables: v2xcl_rol <dbl>,
    ## #   v2xcs_ccsi <dbl>, v2x_freexp_altinf_diff_y2y <dbl>,
    ## #   v2x_horacc_osp_diff_y2y <dbl>, v2x_pubcorr_diff_y2y <dbl>,
    ## #   v2x_veracc_osp_diff_y2y <dbl>, v2xcl_rol_diff_y2y <dbl>,
    ## #   v2xcs_ccsi_diff_y2y <dbl>
…
