…
Check missing cases.

``` r
cy_temp <- left_join(cy, infmort, by = c("gwcode", "year"))
cy_temp %>%
  select(gwcode, year, contains("infmort")) %>%
  summarize_missing()
```

    ## # A tibble: 43 × 3
    ##    gwcode years           n
    ##     <dbl> <chr>       <int>
    ##  1    115 1975 - 1975     1
    ##  2    315 1970 - 1992    23
    ##  3    316 1993 - 1993     1
    ##  4    317 1993 - 1993     1
    ##  5    340 2006 - 2006     1
    ##  6    341 2006 - 2006     1
    ##  7    343 1991 - 1991     1
    ##  8    344 1992 - 1992     1
    ##  9    346 1992 - 1992     1
    ## 10    347 2008 - 2008     1
    ## # … with 33 more rows
…
